<?xml version="1.0" encoding="UTF-8" standalone="no"?>
<!-- Created with Inkscape (http://www.inkscape.org/) -->

<svg
   xmlns:dc="http://purl.org/dc/elements/1.1/"
   xmlns:cc="http://creativecommons.org/ns#"
   xmlns:rdf="http://www.w3.org/1999/02/22-rdf-syntax-ns#"
   xmlns:svg="http://www.w3.org/2000/svg"
   xmlns="http://www.w3.org/2000/svg"
   xmlns:sodipodi="http://sodipodi.sourceforge.net/DTD/sodipodi-0.dtd"
   xmlns:inkscape="http://www.inkscape.org/namespaces/inkscape"
   width="168.82809mm"
   height="159.86053mm"
   viewBox="0 0 598.20978 566.43495"
   id="svg2"
   version="1.1"
   inkscape:version="0.91 r13725"
   sodipodi:docname="notice_mark.svg">
  <defs
     id="defs4" />
  <sodipodi:namedview
     id="base"
     pagecolor="#ffffff"
     bordercolor="#666666"
     borderopacity="1.0"
     inkscape:pageopacity="0.0"
     inkscape:pageshadow="2"
     inkscape:zoom="0.70710678"
     inkscape:cx="343.94968"
     inkscape:cy="235.18345"
     inkscape:document-units="px"
     inkscape:current-layer="layer1"
     showgrid="false"
     showguides="false"
     inkscape:window-width="1920"
     inkscape:window-height="1058"
     inkscape:window-x="-8"
     inkscape:window-y="-8"
     inkscape:window-maximized="1"
     fit-margin-top="0"
     fit-margin-left="0"
     fit-margin-right="0"
     fit-margin-bottom="0" />
  <metadata
     id="metadata7">
    <rdf:RDF>
      <cc:Work
         rdf:about="">
        <dc:format>image/svg+xml</dc:format>
        <dc:type
           rdf:resource="http://purl.org/dc/dcmitype/StillImage" />
        <dc:title></dc:title>
      </cc:Work>
    </rdf:RDF>
  </metadata>
  <g
     inkscape:label="Layer 1"
     inkscape:groupmode="layer"
     id="layer1"
     transform="translate(-64.776706,-121.18978)">
    <path
       sodipodi:type="star"
       style="fill:#ffffff;fill-opacity:1;stroke:#ffffff;stroke-width:1.22051215;stroke-linejoin:miter"
       id="path4138-6"
       sodipodi:sides="3"
       sodipodi:cx="363.88159"
       sodipodi:cy="460.50531"
       sodipodi:r1="338.70529"
       sodipodi:r2="169.35265"
       sodipodi:arg1="0.52359878"
       sodipodi:arg2="1.5707963"
       inkscape:flatsided="true"
       inkscape:rounded="0.15"
       inkscape:randomized="0"
       d="m 657.20898,629.85796 c -43.99911,76.20869 -542.65567,76.20869 -586.654776,-1e-5 C 26.555096,553.64926 275.88338,121.80002 363.88159,121.80002 c 87.99822,0 337.3265,431.84925 293.32739,508.05794 z"
       inkscape:transform-center-y="-84.676337" />
    <path
       style="fill:#484848;fill-opacity:1;stroke:#cccccc;stroke-linejoin:miter"
       d="M 158.82617,141.44531 C 75.268946,248.43737 -20.938278,440.65085 4.734375,485.11719 c 36.04971,62.43993 444.614355,62.43993 480.664065,0 25.67262,-44.46628 -70.53465,-236.67974 -154.0918,-343.67188 l -5.59766,68.33985 c 61.46868,85.3477 125.28493,217.58692 106.64454,249.87304 -28.09293,48.65838 -346.47934,48.65838 -374.57227,0 -18.640361,-32.28605 45.17264,-164.52533 106.64063,-249.87304 l -5.59571,-68.33985 z"
       transform="translate(118.8015,119.30681)"
       id="path4138"
       inkscape:connector-curvature="0" />
    <rect
       style="fill:#800080;fill-opacity:1;stroke:#cccccc;stroke-linejoin:miter"
       id="rect4142"
       width="100.0051"
       height="316.17773"
       x="-335.5462"
       y="232.11833"
       ry="21.14398" />
    <path
       style="fill:#c764d9;fill-opacity:1;stroke:#cccccc;stroke-width:0.94299233;stroke-linejoin:miter"
       d="m 324.89402,224.25921 77.94634,0 c 11.04598,0 20.8402,8.92945 19.93859,19.9386 l -17.41769,212.68136 c -0.90161,11.00913 -8.89263,19.93859 -19.93862,19.93859 l -43.1109,0 c -11.04599,0 -19.03701,-8.92946 -19.93862,-19.93859 L 304.95543,244.19781 c -0.90161,-11.00915 8.89261,-19.9386 19.93859,-19.9386 z"
       id="rect4145"
       inkscape:connector-curvature="0"
       sodipodi:nodetypes="sssssssss" />
    <circle
       style="fill:#c764d9;fill-opacity:1;stroke:#cccccc;stroke-width:0.94299233;stroke-linejoin:miter"
       id="path4148"
       cx="363.86719"
       cy="540.53802"
       r="40.960346" />
    <path
       sodipodi:nodetypes="sssssssss"
       inkscape:connector-curvature="0"
       id="path4161"
       d="m -715.96716,227.08763 77.94634,0 c 11.04598,0 20.8402,8.92945 19.93859,19.9386 l -17.41769,212.68136 c -0.90161,11.00913 -8.89263,19.93859 -19.93862,19.93859 l -43.1109,0 c -11.04599,0 -19.03701,-8.92946 -19.93862,-19.93859 l -17.41769,-212.68136 c -0.90161,-11.00915 8.89261,-19.9386 19.93859,-19.9386 z"
       style="fill:#800080;fill-opacity:1;stroke:#cccccc;stroke-width:0.94299233;stroke-linejoin:miter" />
    <circle
       r="40.960346"
       cy="543.36646"
       cx="-676.99402"
       id="circle4163"
       style="fill:#800080;fill-opacity:1;stroke:#cccccc;stroke-width:0.94299233;stroke-linejoin:miter" />
    <path
       inkscape:connector-curvature="0"
       id="path4156"
       d="m -679.82241,190.98467 c -72.0994,0 -276.3818,353.82765 -240.332,416.26758 36.0497,62.43993 444.61431,62.43993 480.66402,0 36.04971,-62.43993 -168.23261,-416.26758 -240.33202,-416.26758 z m 0,66.41992 c 56.1858,0 215.38002,275.7303 187.2871,324.38867 -28.09293,48.65838 -346.4793,48.65838 -374.5723,0 -28.0929,-48.65837 131.0993,-324.38867 187.2852,-324.38867 z"
       style="fill:#808080;fill-opacity:1;stroke:#cccccc;stroke-linejoin:miter" />
  </g>
</svg>
