<?xml version="1.0" encoding="UTF-8" standalone="no"?>
<!-- Created with Inkscape (http://www.inkscape.org/) -->

<svg
   xmlns:dc="http://purl.org/dc/elements/1.1/"
   xmlns:cc="http://creativecommons.org/ns#"
   xmlns:rdf="http://www.w3.org/1999/02/22-rdf-syntax-ns#"
   xmlns:svg="http://www.w3.org/2000/svg"
   xmlns="http://www.w3.org/2000/svg"
   xmlns:sodipodi="http://sodipodi.sourceforge.net/DTD/sodipodi-0.dtd"
   xmlns:inkscape="http://www.inkscape.org/namespaces/inkscape"
   width="417.70374"
   height="385.38873"
   id="svg3674"
   version="1.1"
   inkscape:version="0.91pre2 r13516"
   viewBox="0 0 417.70373 385.38874"
   sodipodi:docname="occam-worker-co-dependent-jobs.svg">
  <defs
     id="defs3676" />
  <sodipodi:namedview
     id="base"
     pagecolor="#ffffff"
     bordercolor="#666666"
     borderopacity="1.0"
     inkscape:pageopacity="0.0"
     inkscape:pageshadow="2"
     inkscape:zoom="0.98994949"
     inkscape:cx="200.27994"
     inkscape:cy="111.29192"
     inkscape:document-units="px"
     inkscape:current-layer="layer1"
     showgrid="false"
     inkscape:window-width="1920"
     inkscape:window-height="1058"
     inkscape:window-x="-8"
     inkscape:window-y="-8"
     inkscape:window-maximized="1"
     fit-margin-top="0"
     fit-margin-left="0"
     fit-margin-right="0"
     fit-margin-bottom="0" />
  <metadata
     id="metadata3679">
    <rdf:RDF>
      <cc:Work
         rdf:about="">
        <dc:format>image/svg+xml</dc:format>
        <dc:type
           rdf:resource="http://purl.org/dc/dcmitype/StillImage" />
        <dc:title></dc:title>
      </cc:Work>
    </rdf:RDF>
  </metadata>
  <g
     inkscape:label="Layer 1"
     inkscape:groupmode="layer"
     id="layer1"
     transform="translate(-139.71958,-253.7124)">
    <rect
       style="fill:#fafcff;fill-opacity:1;stroke:#80b3ff;stroke-width:5.34399986;stroke-linecap:round;stroke-linejoin:round;stroke-miterlimit:4;stroke-dasharray:none;stroke-opacity:1"
       id="rect4020"
       width="412.35974"
       height="317.66986"
       x="142.39157"
       y="256.3844"
       ry="20.843971" />
    <rect
       style="fill:#fafcff;fill-opacity:1;stroke:#808080;stroke-width:5.34399986;stroke-linecap:round;stroke-linejoin:round;stroke-miterlimit:4;stroke-dasharray:none;stroke-opacity:1"
       id="rect3993"
       width="129.40979"
       height="121.91003"
       x="397.30374"
       y="354.26434"
       ry="7.9991446" />
    <rect
       style="fill:#fafcff;fill-opacity:1;stroke:#808080;stroke-width:5.34399986;stroke-linecap:round;stroke-linejoin:round;stroke-miterlimit:4;stroke-dasharray:none;stroke-opacity:1"
       id="rect3995"
       width="129.40979"
       height="121.91003"
       x="171.30374"
       y="420.26434"
       ry="7.9991446" />
    <rect
       ry="7.9991446"
       y="288.26434"
       x="171.30374"
       height="121.91003"
       width="129.40979"
       id="rect3997"
       style="fill:#fafcff;fill-opacity:1;stroke:#808080;stroke-width:5.34399986;stroke-linecap:round;stroke-linejoin:round;stroke-miterlimit:4;stroke-dasharray:none;stroke-opacity:1" />
    <rect
       style="opacity:0.64489794;fill:#8dd35f;fill-opacity:0.21739131;stroke:#8dd35f;stroke-width:7;stroke-linecap:round;stroke-linejoin:round;stroke-miterlimit:4;stroke-dasharray:none;stroke-opacity:1"
       id="rect3999"
       width="86.368042"
       height="86.368042"
       x="418.82462"
       y="372.03534"
       ry="17.200001" />
    <rect
       ry="17.200001"
       y="306.03534"
       x="192.82462"
       height="86.368042"
       width="86.368042"
       id="rect4001"
       style="opacity:0.64489794;fill:#ffd8be;fill-opacity:1;stroke:#ff7f2a;stroke-width:7;stroke-linecap:round;stroke-linejoin:round;stroke-miterlimit:4;stroke-dasharray:none;stroke-opacity:1" />
    <rect
       style="opacity:0.64489794;fill:#ffd8be;fill-opacity:1;stroke:#ff7f2a;stroke-width:7;stroke-linecap:round;stroke-linejoin:round;stroke-miterlimit:4;stroke-dasharray:none;stroke-opacity:1"
       id="rect4003"
       width="86.368042"
       height="86.368042"
       x="192.82462"
       y="-524.40338"
       ry="17.200001"
       transform="scale(1,-1)" />
    <path
       id="path4005"
       style="fill:none;stroke:#de87cd;stroke-width:5.4000001;stroke-linecap:round;stroke-linejoin:round;stroke-miterlimit:4;stroke-dasharray:none;stroke-opacity:1"
       d="m 371.66733,415.2194 -15.88072,0 m -38.88253,-59.98654 38.375,0 0,120 -38.375,0"
       inkscape:connector-curvature="0"
       sodipodi:nodetypes="cccccc" />
    <path
       sodipodi:type="star"
       style="fill:#de87cd;fill-opacity:1;stroke:none"
       id="path4007"
       sodipodi:sides="3"
       sodipodi:cx="31.819805"
       sodipodi:cy="366.97369"
       sodipodi:r1="17.857143"
       sodipodi:r2="8.9285717"
       sodipodi:arg1="0.52359878"
       sodipodi:arg2="1.5707963"
       inkscape:flatsided="false"
       inkscape:rounded="0"
       inkscape:randomized="0"
       d="m 47.284545,375.90227 -15.46474,0 -15.46474,0 7.73237,-13.39286 7.73237,-13.39286 7.73237,13.39286 z"
       transform="matrix(0,0.51010208,-0.51010208,0,562.29538,398.98805)"
       inkscape:transform-center-x="-2.2772355" />
    <g
       transform="translate(151.16707,251.88908)"
       style="font-style:normal;font-weight:normal;font-size:40px;line-height:125%;font-family:'Cinzel Decorative Bold';-inkscape-font-specification:'Cinzel Decorative Bold';letter-spacing:0px;word-spacing:0px;fill:#333333;fill-opacity:1;stroke:none;stroke-width:1px;stroke-linecap:butt;stroke-linejoin:miter;stroke-opacity:1"
       id="text3390-8-9-7">
      <path
         inkscape:connector-curvature="0"
         d="m 311.61304,177.81271 q -2.48047,0 -4.76563,-0.97656 -2.26562,-0.97656 -4.02344,-2.8125 -1.73828,-1.83594 -2.77343,-4.47266 -1.03516,-2.65625 -1.03516,-5.97656 0,-3.32031 1.01563,-6.01562 1.01562,-2.71485 2.8125,-4.66797 1.77734,-1.9336 4.19921,-2.98828 2.42188,-1.05469 5.17579,-1.05469 2.05078,0 3.71093,0.50781 1.66016,0.50781 3.16407,1.42578 l 0.80078,-1.32812 1.5625,0 0.17578,9.88281 -1.60156,0 q -0.3125,-1.44531 -0.9375,-3.125 -0.625,-1.69922 -1.46485,-2.87109 -0.9375,-1.32813 -2.22656,-2.07032 -1.28906,-0.76171 -2.94922,-0.76171 -1.89453,0 -3.53516,0.83984 -1.62109,0.83984 -2.8125,2.48047 -1.13281,1.58203 -1.77734,4.02344 -0.64453,2.4414 -0.64453,5.44921 0,2.65625 0.66406,4.88282 0.6836,2.20703 1.9336,3.88672 1.25,1.66015 2.94921,2.59765 1.71875,0.9375 3.82813,0.9375 1.58203,0 2.91016,-0.48828 1.32812,-0.50781 2.30468,-1.32812 0.97657,-0.85938 1.71875,-1.95313 0.74219,-1.09375 1.21094,-2.38281 l 1.46484,0.70312 q -1.67968,4.1211 -4.45312,5.89844 -2.77344,1.75781 -6.60156,1.75781 z"
         style="font-style:normal;font-variant:normal;font-weight:normal;font-stretch:normal;font-family:Georgia;-inkscape-font-specification:Georgia;fill:#333333"
         id="path3424-3-5" />
    </g>
    <g
       style="font-style:normal;font-weight:normal;font-size:40px;line-height:125%;font-family:'Cinzel Decorative Bold';-inkscape-font-specification:'Cinzel Decorative Bold';letter-spacing:0px;word-spacing:0px;fill:#333333;fill-opacity:1;stroke:none;stroke-width:1px;stroke-linecap:butt;stroke-linejoin:miter;stroke-opacity:1"
       id="text3365-5-2"
       transform="translate(104.40702,248.42392)">
      <path
         d="m 145.87901,114.84818 -11.54297,0 0,-1.38672 q 1.52343,-0.0977 2.51953,-0.39062 1.01562,-0.29297 1.01562,-0.72266 0,-0.17578 -0.0391,-0.42968 -0.0391,-0.25391 -0.11719,-0.44922 l -2.30468,-6.21094 -9.70704,0 q -0.54687,1.36719 -0.89843,2.38281 -0.33203,1.01563 -0.60547,1.875 -0.25391,0.83985 -0.35156,1.36719 -0.0977,0.52734 -0.0977,0.85937 0,0.78125 1.23047,1.21094 1.23047,0.42969 2.77344,0.50781 l 0,1.38672 -10.42969,0 0,-1.38672 q 0.50781,-0.0391 1.26953,-0.21484 0.76172,-0.19531 1.25,-0.50781 0.78125,-0.52735 1.21094,-1.09375 0.42968,-0.58594 0.83984,-1.60156 2.08984,-5.21485 4.60938,-11.718755 2.51953,-6.503906 4.49218,-11.582031 l 1.5625,0 9.23828,23.906246 q 0.29297,0.76172 0.66407,1.23047 0.37109,0.46875 1.03515,0.91797 0.44922,0.27344 1.17188,0.46875 0.72265,0.17578 1.21094,0.19531 l 0,1.38672 z m -11.17188,-11.32812 -4.19922,-10.74219 -4.12109,10.74219 8.32031,0 z"
         style="font-style:normal;font-variant:normal;font-weight:normal;font-stretch:normal;font-family:Georgia;-inkscape-font-specification:Georgia;fill:#333333"
         id="path3370-7-5"
         inkscape:connector-curvature="0" />
    </g>
    <g
       style="font-style:normal;font-weight:normal;font-size:40px;line-height:125%;font-family:'Cinzel Decorative Bold';-inkscape-font-specification:'Cinzel Decorative Bold';letter-spacing:0px;word-spacing:0px;fill:#333333;fill-opacity:1;stroke:none;stroke-width:1px;stroke-linecap:butt;stroke-linejoin:miter;stroke-opacity:1"
       id="text3365-4-0-6"
       transform="translate(102.16857,382.58014)">
      <g
         style="font-style:normal;font-weight:normal;font-size:40px;line-height:125%;font-family:'Cinzel Decorative Bold';-inkscape-font-specification:'Cinzel Decorative Bold';letter-spacing:0px;word-spacing:0px;fill:#333333;fill-opacity:1;stroke:none;stroke-width:1px;stroke-linecap:butt;stroke-linejoin:miter;stroke-opacity:1"
         id="text3390-5-4">
        <path
           inkscape:connector-curvature="0"
           d="m 142.28734,99.586494 q 1.21094,0.820316 2.01172,2.148436 0.80078,1.32813 0.80078,3.22266 0,1.93359 -0.83985,3.35937 -0.83984,1.42578 -2.1875,2.34375 -1.30859,0.89844 -2.96875,1.36719 -1.64062,0.46875 -3.39843,0.46875 l -13.125,0 0,-1.38672 q 0.46875,-0.0391 1.36718,-0.15625 0.89844,-0.13672 1.28907,-0.3125 0.60547,-0.27344 0.85937,-0.72265 0.25391,-0.46875 0.25391,-1.19141 l 0,-19.921876 q 0,-0.664062 -0.23438,-1.171875 -0.21484,-0.507812 -0.8789,-0.820312 -0.58594,-0.292969 -1.3086,-0.449219 -0.72265,-0.15625 -1.21093,-0.195312 l 0,-1.386719 12.79296,0 q 1.48438,0 2.83204,0.292969 1.36718,0.292968 2.59765,1.035156 1.15235,0.683594 1.89453,1.855469 0.74219,1.171875 0.74219,2.851562 0,1.464844 -0.52734,2.617188 -0.52735,1.132812 -1.48438,1.953125 -0.89844,0.78125 -2.07031,1.328125 -1.15234,0.527343 -2.5,0.820312 l 0,0.175781 q 1.19141,0.136719 2.65625,0.605469 1.48437,0.449219 2.63672,1.269531 z m -4.70703,-4.179687 q 0.72265,-0.839844 0.99609,-1.835938 0.29297,-0.996093 0.29297,-2.363281 0,-2.285156 -1.25,-3.574219 -1.25,-1.308593 -3.94531,-1.308593 -0.625,0 -1.58203,0.03906 -0.9375,0.01953 -1.58204,0.03906 l 0,10.644531 2.48047,0 q 1.60157,0 2.73438,-0.410156 1.15234,-0.410157 1.85547,-1.230469 z m 2.69531,8.847653 q 0,-2.46093 -1.66016,-4.04297 -1.64062,-1.582027 -4.70703,-1.582027 -1.25,0 -2.10937,0.03906 -0.85938,0.01953 -1.28907,0.03906 l 0,9.765627 q 0,1.23047 0.9961,1.85547 0.99609,0.625 2.77344,0.625 2.91015,0 4.45312,-1.69922 1.54297,-1.69922 1.54297,-5 z"
           style="font-style:normal;font-variant:normal;font-weight:normal;font-stretch:normal;font-family:Georgia;-inkscape-font-specification:Georgia;fill:#333333"
           id="path3421-5-3" />
      </g>
    </g>
    <text
       xml:space="preserve"
       style="font-style:normal;font-variant:normal;font-weight:normal;font-stretch:normal;font-size:40px;line-height:125%;font-family:Georgia;-inkscape-font-specification:Georgia;letter-spacing:0px;word-spacing:0px;fill:#000000;fill-opacity:1;stroke:none;stroke-width:1px;stroke-linecap:butt;stroke-linejoin:miter;stroke-opacity:1"
       x="187.14285"
       y="590.93359"
       id="text3718"
       sodipodi:linespacing="125%"><tspan
         sodipodi:role="line"
         id="tspan3720"
         x="187.14285"
         y="590.93359" /></text>
    <text
       xml:space="preserve"
       style="font-style:normal;font-weight:normal;font-size:40px;line-height:125%;font-family:'Cinzel Decorative Bold';-inkscape-font-specification:'Cinzel Decorative Bold';letter-spacing:0px;word-spacing:0px;fill:#000000;fill-opacity:1;stroke:none;stroke-width:1px;stroke-linecap:butt;stroke-linejoin:miter;stroke-opacity:1"
       x="348.45609"
       y="606.09821"
       id="text3722"
       sodipodi:linespacing="125%"><tspan
         sodipodi:role="line"
         id="tspan3724"
         x="348.45609"
         y="606.09821"
         style="font-style:normal;font-variant:normal;font-weight:normal;font-stretch:normal;font-size:22.5px;font-family:Georgia;-inkscape-font-specification:Georgia;text-align:center;text-anchor:middle">co-dependent jobs run in isolation</tspan><tspan
         sodipodi:role="line"
         x="348.45609"
         y="634.22321"
         style="font-style:normal;font-variant:normal;font-weight:normal;font-stretch:normal;font-size:22.5px;font-family:Georgia;-inkscape-font-specification:Georgia;text-align:center;text-anchor:middle"
         id="tspan3726">and communicate through IPC</tspan></text>
  </g>
</svg>
